<?xml version="1.0" encoding="iso-8859-1"?>
<!-- Generator: Adobe Illustrator 19.0.0, SVG Export Plug-In . SVG Version: 6.00 Build 0)  -->
<svg version="1.1" id="Capa_1" xmlns="http://www.w3.org/2000/svg" xmlns:xlink="http://www.w3.org/1999/xlink" x="0px" y="0px"
	 viewBox="0 0 512 512" style="enable-background:new 0 0 512 512;" xml:space="preserve">
<circle style="fill:#E6EAEE;" cx="255.815" cy="256.187" r="248.27"/>
<path style="fill:#CDD3D9;" d="M504.085,256.183c0,137.113-111.157,248.27-248.27,248.27c-8.893,0-17.666-0.463-26.318-1.378
	c124.749-13.149,221.942-118.672,221.942-246.892S354.246,22.441,229.497,9.292c8.652-0.915,17.425-1.378,26.318-1.378
	C392.928,7.913,504.085,119.071,504.085,256.183z"/>
<path d="M40.645,387.658c-2.608,0-5.144-1.354-6.542-3.775C11.793,345.227,0,301.069,0,256.183
	c0-68.33,26.61-132.572,74.927-180.889C123.244,26.977,187.484,0.368,255.815,0.368s132.572,26.61,180.89,74.927
	c48.316,48.317,74.927,112.559,74.927,180.89c0,10.827-0.684,21.727-2.033,32.398c-0.522,4.134-4.287,7.061-8.432,6.539
	c-4.134-0.523-7.062-4.298-6.539-8.432c1.27-10.045,1.912-20.31,1.912-30.506c0-64.3-25.04-124.752-70.507-170.219
	c-45.466-45.468-105.918-70.507-170.218-70.507S131.064,40.498,85.598,85.966c-45.467,45.466-70.507,105.918-70.507,170.218
	c0,42.241,11.094,83.79,32.084,120.155c2.082,3.609,0.846,8.223-2.764,10.307C43.222,387.332,41.926,387.658,40.645,387.658z"/>
<path d="M255.815,512c-36.585,0-71.916-7.563-105.009-22.479c-31.968-14.408-60.214-34.897-83.953-60.896
	c-2.81-3.077-2.594-7.85,0.484-10.66c3.076-2.81,7.849-2.594,10.659,0.484c22.345,24.472,48.929,43.756,79.01,57.314
	c31.132,14.031,64.375,21.146,98.809,21.146c102.117,0,193.427-64.702,227.214-161.005c1.38-3.932,5.688-5.998,9.618-4.622
	c3.933,1.379,6.002,5.685,4.623,9.618C461.364,443.239,364.332,512,255.815,512z"/>
<circle style="fill:#34D6C1;" cx="255.815" cy="256.188" r="177.113"/>
<path style="fill:#1AC4AE;" d="M432.929,256.183c0,97.815-79.299,177.113-177.113,177.113c-6.344,0-12.603-0.33-18.775-0.983
	c88.994-9.38,158.331-84.659,158.331-176.13s-69.337-166.75-158.332-176.13c6.172-0.653,12.431-0.983,18.775-0.983
	C353.63,79.07,432.929,158.368,432.929,256.183z"/>
<path d="M255.815,440.843c-101.821,0-184.659-82.837-184.659-184.659S153.994,71.525,255.815,71.525s184.659,82.837,184.659,184.659
	S357.637,440.843,255.815,440.843z M255.815,86.616c-93.5,0-169.569,76.069-169.569,169.569s76.068,169.569,169.569,169.569
	s169.569-76.069,169.569-169.569S349.317,86.616,255.815,86.616z"/>
<circle style="fill:#FFD071;" cx="255.815" cy="256.187" r="107.073"/>
<path style="fill:#F7B657;" d="M362.884,256.183c0,59.131-47.938,107.068-107.068,107.068c-3.835,0-7.619-0.199-11.35-0.595
	c53.799-5.671,95.713-51.178,95.713-106.474s-41.916-100.803-95.713-106.474c3.731-0.394,7.514-0.595,11.35-0.595
	C314.946,149.116,362.884,197.053,362.884,256.183z"/>
<path d="M255.815,370.797c-63.198,0-114.614-51.416-114.614-114.614S192.616,141.57,255.815,141.57s114.614,51.416,114.614,114.614
	S319.015,370.797,255.815,370.797z M255.815,156.661c-54.877,0-99.523,44.646-99.523,99.523s44.646,99.523,99.523,99.523
	s99.523-44.646,99.523-99.523S310.693,156.661,255.815,156.661z"/>
<circle style="fill:#FF6E5E;" cx="255.815" cy="256.188" r="49.557"/>
<path style="fill:#F4584D;" d="M305.373,256.183c0,27.364-22.193,49.557-49.557,49.557c-4.557,0-8.974-0.614-13.159-1.771
	c20.986-5.765,36.398-24.98,36.398-47.787s-15.413-42.022-36.398-47.787c4.185-1.157,8.602-1.771,13.159-1.771
	C283.18,206.626,305.373,228.819,305.373,256.183z"/>
<path d="M255.815,313.283c-31.485,0-57.1-25.615-57.1-57.1s25.615-57.1,57.1-57.1s57.1,25.615,57.1,57.1
	S287.3,313.283,255.815,313.283z M255.815,214.175c-23.163,0-42.009,18.845-42.009,42.009c0,23.164,18.845,42.009,42.009,42.009
	s42.009-18.845,42.009-42.009S278.979,214.175,255.815,214.175z"/>
<path style="fill:#FF6E5E;" d="M441.981,64.525l5.011-51.437c0.458-4.698-5.225-7.382-8.563-4.044L364.523,82.95
	c-1.064,1.064-1.597,2.549-1.45,4.047l5.123,52.292c0.234,2.39,2.126,4.282,4.516,4.516l52.292,5.123
	c1.498,0.147,2.983-0.385,4.047-1.45l73.906-73.906c3.338-3.338,0.654-9.021-4.044-8.563l-51.437,5.011
	C444.322,70.326,441.673,67.678,441.981,64.525z"/>
<path style="fill:#F4584D;" d="M502.959,73.567l-73.904,73.914c-1.066,1.056-2.555,1.59-4.054,1.449l-52.294-5.131
	c-2.384-0.231-4.276-2.123-4.507-4.507l-1.046-10.714l41.58,4.074c1.499,0.151,2.978-0.382,4.044-1.449l64.044-64.044l22.093-2.153
	C503.614,64.553,506.299,70.237,502.959,73.567z"/>
<path d="M510.771,64.644c-2.297-4.862-7.227-7.662-12.592-7.146l-48.392,4.715l4.714-48.393c0.522-5.352-2.284-10.294-7.146-12.591
	c-4.861-2.296-10.46-1.323-14.264,2.479l-73.904,73.904c-2.673,2.672-3.995,6.362-3.625,10.12l5.036,51.42L250.442,250.887
	c-2.926,2.968-2.891,7.744,0.075,10.67c1.47,1.449,3.383,2.172,5.298,2.172c1.949,0,3.896-0.75,5.373-2.247l108.94-110.5
	c0.601,0.152,1.215,0.271,1.847,0.332l52.292,5.122c0.415,0.04,0.829,0.06,1.24,0.06c3.321,0,6.502-1.307,8.878-3.684l73.906-73.906
	C512.095,75.105,513.066,69.506,510.771,64.644z M424.556,141.301l-49.053-4.805l-4.804-49.052l68.103-68.103l-4.331,44.453
	c-0.366,3.757,0.955,7.441,3.624,10.111c2.67,2.67,6.353,3.985,10.113,3.625l44.453-4.331L424.556,141.301z"/>
<g>
</g>
<g>
</g>
<g>
</g>
<g>
</g>
<g>
</g>
<g>
</g>
<g>
</g>
<g>
</g>
<g>
</g>
<g>
</g>
<g>
</g>
<g>
</g>
<g>
</g>
<g>
</g>
<g>
</g>
</svg>
